_,_,l,a,b,e,l,_,_,2
_,_,l,a,b,e,l,_,_,2
_,_,l,a,b,e,l,_,_,2
_,_,l,a,b,e,l,_,_,1
_,_,l,a,b,e,l,_,_,1
_,_,l,a,b,e,l,_,_,2
_,_,l,a,b,e,l,_,_,2
_,_,l,a,b,e,l,_,_,1
_,_,l,a,b,e,l,_,_,1
_,_,l,a,b,e,l,_,_,2
_,_,l,a,b,e,l,_,_,2
_,_,l,a,b,e,l,_,_,2
_,_,l,a,b,e,l,_,_,1
_,_,l,a,b,e,l,_,_,2
_,_,l,a,b,e,l,_,_,2
_,_,l,a,b,e,l,_,_,2
_,_,l,a,b,e,l,_,_,2
_,_,l,a,b,e,l,_,_,2
_,_,l,a,b,e,l,_,_,2
_,_,l,a,b,e,l,_,_,2
_,_,l,a,b,e,l,_,_,2
_,_,l,a,b,e,l,_,_,2
_,_,l,a,b,e,l,_,_,2
_,_,l,a,b,e,l,_,_,1
_,_,l,a,b,e,l,_,_,1
_,_,l,a,b,e,l,_,_,1
_,_,l,a,b,e,l,_,_,2
_,_,l,a,b,e,l,_,_,2
_,_,l,a,b,e,l,_,_,2
_,_,l,a,b,e,l,_,_,2
_,_,l,a,b,e,l,_,_,2
_,_,l,a,b,e,l,_,_,2
_,_,l,a,b,e,l,_,_,2
_,_,l,a,b,e,l,_,_,2
_,_,l,a,b,e,l,_,_,2
_,_,l,a,b,e,l,_,_,2
_,_,l,a,b,e,l,_,_,2
_,_,l,a,b,e,l,_,_,2
_,_,l,a,b,e,l,_,_,2
_,_,l,a,b,e,l,_,_,2
_,_,l,a,b,e,l,_,_,2
_,_,l,a,b,e,l,_,_,2
_,_,l,a,b,e,l,_,_,2
_,_,l,a,b,e,l,_,_,2
_,_,l,a,b,e,l,_,_,2
_,_,l,a,b,e,l,_,_,2
_,_,l,a,b,e,l,_,_,1
_,_,l,a,b,e,l,_,_,2
_,_,l,a,b,e,l,_,_,2
_,_,l,a,b,e,l,_,_,2
_,_,l,a,b,e,l,_,_,2
_,_,l,a,b,e,l,_,_,2
_,_,l,a,b,e,l,_,_,2
_,_,l,a,b,e,l,_,_,2
_,_,l,a,b,e,l,_,_,2
_,_,l,a,b,e,l,_,_,2
_,_,l,a,b,e,l,_,_,2
_,_,l,a,b,e,l,_,_,2
_,_,l,a,b,e,l,_,_,2
_,_,l,a,b,e,l,_,_,1
_,_,l,a,b,e,l,_,_,1
_,_,l,a,b,e,l,_,_,2
_,_,l,a,b,e,l,_,_,2
_,_,l,a,b,e,l,_,_,2
_,_,l,a,b,e,l,_,_,2
_,_,l,a,b,e,l,_,_,2
_,_,l,a,b,e,l,_,_,2
_,_,l,a,b,e,l,_,_,2
_,_,l,a,b,e,l,_,_,2
_,_,l,a,b,e,l,_,_,2
_,_,l,a,b,e,l,_,_,2
_,_,l,a,b,e,l,_,_,2
_,_,l,a,b,e,l,_,_,2
_,_,l,a,b,e,l,_,_,2
_,_,l,a,b,e,l,_,_,1
_,_,l,a,b,e,l,_,_,1
_,_,l,a,b,e,l,_,_,2
_,_,l,a,b,e,l,_,_,2
_,_,l,a,b,e,l,_,_,1
_,_,l,a,b,e,l,_,_,2
_,_,l,a,b,e,l,_,_,2
_,_,l,a,b,e,l,_,_,2
_,_,l,a,b,e,l,_,_,1
_,_,l,a,b,e,l,_,_,2
_,_,l,a,b,e,l,_,_,2
_,_,l,a,b,e,l,_,_,2
_,_,l,a,b,e,l,_,_,2
_,_,l,a,b,e,l,_,_,2
_,_,l,a,b,e,l,_,_,2
_,_,l,a,b,e,l,_,_,2
_,_,l,a,b,e,l,_,_,2
_,_,l,a,b,e,l,_,_,1
_,_,l,a,b,e,l,_,_,2
_,_,l,a,b,e,l,_,_,2
_,_,l,a,b,e,l,_,_,2
_,_,l,a,b,e,l,_,_,2
_,_,l,a,b,e,l,_,_,2
_,_,l,a,b,e,l,_,_,2
_,_,l,a,b,e,l,_,_,2
_,_,l,a,b,e,l,_,_,2
_,_,l,a,b,e,l,_,_,2
_,_,l,a,b,e,l,_,_,2
_,_,l,a,b,e,l,_,_,2
_,_,l,a,b,e,l,_,_,1
_,_,l,a,b,e,l,_,_,2
_,_,l,a,b,e,l,_,_,1
_,_,l,a,b,e,l,_,_,2
_,_,l,a,b,e,l,_,_,2
_,_,l,a,b,e,l,_,_,2
_,_,l,a,b,e,l,_,_,2
_,_,l,a,b,e,l,_,_,2
_,_,l,a,b,e,l,_,_,2
_,_,l,a,b,e,l,_,_,2
_,_,l,a,b,e,l,_,_,2
_,_,l,a,b,e,l,_,_,2
_,_,l,a,b,e,l,_,_,1
_,_,l,a,b,e,l,_,_,2
_,_,l,a,b,e,l,_,_,2
_,_,l,a,b,e,l,_,_,2
_,_,l,a,b,e,l,_,_,2
_,_,l,a,b,e,l,_,_,2
_,_,l,a,b,e,l,_,_,2
_,_,l,a,b,e,l,_,_,2
_,_,l,a,b,e,l,_,_,2
_,_,l,a,b,e,l,_,_,2
_,_,l,a,b,e,l,_,_,2
_,_,l,a,b,e,l,_,_,2
_,_,l,a,b,e,l,_,_,2
_,_,l,a,b,e,l,_,_,2
_,_,l,a,b,e,l,_,_,2
_,_,l,a,b,e,l,_,_,2
_,_,l,a,b,e,l,_,_,2
_,_,l,a,b,e,l,_,_,2
_,_,l,a,b,e,l,_,_,2
_,_,l,a,b,e,l,_,_,2
_,_,l,a,b,e,l,_,_,2
_,_,l,a,b,e,l,_,_,2
_,_,l,a,b,e,l,_,_,2
_,_,l,a,b,e,l,_,_,2
_,_,l,a,b,e,l,_,_,2
_,_,l,a,b,e,l,_,_,2
_,_,l,a,b,e,l,_,_,2
_,_,l,a,b,e,l,_,_,2
_,_,l,a,b,e,l,_,_,2
_,_,l,a,b,e,l,_,_,2
_,_,l,a,b,e,l,_,_,2
_,_,l,a,b,e,l,_,_,2
_,_,l,a,b,e,l,_,_,2
_,_,l,a,b,e,l,_,_,2
_,_,l,a,b,e,l,_,_,2
_,_,l,a,b,e,l,_,_,2
_,_,l,a,b,e,l,_,_,2
_,_,l,a,b,e,l,_,_,2
_,_,l,a,b,e,l,_,_,2
_,_,l,a,b,e,l,_,_,2
_,_,l,a,b,e,l,_,_,1
_,_,l,a,b,e,l,_,_,2
_,_,l,a,b,e,l,_,_,2
_,_,l,a,b,e,l,_,_,2
_,_,l,a,b,e,l,_,_,2
_,_,l,a,b,e,l,_,_,2
_,_,l,a,b,e,l,_,_,2
_,_,l,a,b,e,l,_,_,2
_,_,l,a,b,e,l,_,_,1
_,_,l,a,b,e,l,_,_,2
_,_,l,a,b,e,l,_,_,2
_,_,l,a,b,e,l,_,_,2
_,_,l,a,b,e,l,_,_,1
_,_,l,a,b,e,l,_,_,2
_,_,l,a,b,e,l,_,_,2
_,_,l,a,b,e,l,_,_,1
_,_,l,a,b,e,l,_,_,1
_,_,l,a,b,e,l,_,_,2
_,_,l,a,b,e,l,_,_,2
_,_,l,a,b,e,l,_,_,2
_,_,l,a,b,e,l,_,_,2
_,_,l,a,b,e,l,_,_,2
_,_,l,a,b,e,l,_,_,2
_,_,l,a,b,e,l,_,_,1
_,_,l,a,b,e,l,_,_,1
_,_,l,a,b,e,l,_,_,2
_,_,l,a,b,e,l,_,_,1
_,_,l,a,b,e,l,_,_,2
_,_,l,a,b,e,l,_,_,2
_,_,l,a,b,e,l,_,_,2
_,_,l,a,b,e,l,_,_,2
_,_,l,a,b,e,l,_,_,2
_,_,l,a,b,e,l,_,_,2
_,_,l,a,b,e,l,_,_,2
_,_,l,a,b,e,l,_,_,1
_,_,l,a,b,e,l,_,_,2
_,_,l,a,b,e,l,_,_,1
_,_,l,a,b,e,l,_,_,2
_,_,l,a,b,e,l,_,_,2
_,_,l,a,b,e,l,_,_,1
_,_,l,a,b,e,l,_,_,2
_,_,l,a,b,e,l,_,_,2
_,_,l,a,b,e,l,_,_,2
_,_,l,a,b,e,l,_,_,1
_,_,l,a,b,e,l,_,_,2
_,_,l,a,b,e,l,_,_,2
_,_,l,a,b,e,l,_,_,2
_,_,l,a,b,e,l,_,_,2
_,_,l,a,b,e,l,_,_,2
_,_,l,a,b,e,l,_,_,1
_,_,l,a,b,e,l,_,_,1
_,_,l,a,b,e,l,_,_,2
_,_,l,a,b,e,l,_,_,2
_,_,l,a,b,e,l,_,_,2
_,_,l,a,b,e,l,_,_,2
_,_,l,a,b,e,l,_,_,2
_,_,l,a,b,e,l,_,_,2
_,_,l,a,b,e,l,_,_,2
_,_,l,a,b,e,l,_,_,2
_,_,l,a,b,e,l,_,_,2
_,_,l,a,b,e,l,_,_,2
_,_,l,a,b,e,l,_,_,1
_,_,l,a,b,e,l,_,_,2
_,_,l,a,b,e,l,_,_,2
_,_,l,a,b,e,l,_,_,2
_,_,l,a,b,e,l,_,_,2
_,_,l,a,b,e,l,_,_,2
_,_,l,a,b,e,l,_,_,2
_,_,l,a,b,e,l,_,_,1
_,_,l,a,b,e,l,_,_,1
_,_,l,a,b,e,l,_,_,1
_,_,l,a,b,e,l,_,_,1
_,_,l,a,b,e,l,_,_,2
_,_,l,a,b,e,l,_,_,2
_,_,l,a,b,e,l,_,_,2
_,_,l,a,b,e,l,_,_,2
_,_,l,a,b,e,l,_,_,2
_,_,l,a,b,e,l,_,_,2
_,_,l,a,b,e,l,_,_,2
_,_,l,a,b,e,l,_,_,2
_,_,l,a,b,e,l,_,_,2
_,_,l,a,b,e,l,_,_,2
_,_,l,a,b,e,l,_,_,2
_,_,l,a,b,e,l,_,_,2
_,_,l,a,b,e,l,_,_,2
_,_,l,a,b,e,l,_,_,2
_,_,l,a,b,e,l,_,_,2
_,_,l,a,b,e,l,_,_,2
_,_,l,a,b,e,l,_,_,2
_,_,l,a,b,e,l,_,_,2
_,_,l,a,b,e,l,_,_,1
_,_,l,a,b,e,l,_,_,1
_,_,l,a,b,e,l,_,_,2
_,_,l,a,b,e,l,_,_,2
_,_,l,a,b,e,l,_,_,2
_,_,l,a,b,e,l,_,_,2
_,_,l,a,b,e,l,_,_,2
_,_,l,a,b,e,l,_,_,2
_,_,l,a,b,e,l,_,_,1
_,_,l,a,b,e,l,_,_,2
_,_,l,a,b,e,l,_,_,2
_,_,l,a,b,e,l,_,_,2
_,_,l,a,b,e,l,_,_,2
_,_,l,a,b,e,l,_,_,2
_,_,l,a,b,e,l,_,_,2
_,_,l,a,b,e,l,_,_,2
_,_,l,a,b,e,l,_,_,2
_,_,l,a,b,e,l,_,_,2
_,_,l,a,b,e,l,_,_,2
_,_,l,a,b,e,l,_,_,2
_,_,l,a,b,e,l,_,_,2
_,_,l,a,b,e,l,_,_,2
_,_,l,a,b,e,l,_,_,2
_,_,l,a,b,e,l,_,_,2
_,_,l,a,b,e,l,_,_,2
_,_,l,a,b,e,l,_,_,2
_,_,l,a,b,e,l,_,_,2
_,_,l,a,b,e,l,_,_,2
_,_,l,a,b,e,l,_,_,2
_,_,l,a,b,e,l,_,_,2
_,_,l,a,b,e,l,_,_,2
_,_,l,a,b,e,l,_,_,2
_,_,l,a,b,e,l,_,_,2
_,_,l,a,b,e,l,_,_,1
_,_,l,a,b,e,l,_,_,2
_,_,l,a,b,e,l,_,_,2
_,_,l,a,b,e,l,_,_,2
_,_,l,a,b,e,l,_,_,1
_,_,l,a,b,e,l,_,_,2
_,_,l,a,b,e,l,_,_,2
_,_,l,a,b,e,l,_,_,2
_,_,l,a,b,e,l,_,_,2
_,_,l,a,b,e,l,_,_,2
_,_,l,a,b,e,l,_,_,2
_,_,l,a,b,e,l,_,_,2
_,_,l,a,b,e,l,_,_,2
_,_,l,a,b,e,l,_,_,2
_,_,l,a,b,e,l,_,_,2
_,_,l,a,b,e,l,_,_,2
_,_,l,a,b,e,l,_,_,2
_,_,l,a,b,e,l,_,_,2
_,_,l,a,b,e,l,_,_,2
_,_,l,a,b,e,l,_,_,2
_,_,l,a,b,e,l,_,_,2
_,_,l,a,b,e,l,_,_,2
_,_,l,a,b,e,l,_,_,2
_,_,l,a,b,e,l,_,_,2
_,_,l,a,b,e,l,_,_,2
_,_,l,a,b,e,l,_,_,2
_,_,l,a,b,e,l,_,_,2
_,_,l,a,b,e,l,_,_,2
_,_,l,a,b,e,l,_,_,2
_,_,l,a,b,e,l,_,_,2
_,_,l,a,b,e,l,_,_,1
_,_,l,a,b,e,l,_,_,1
_,_,l,a,b,e,l,_,_,2
_,_,l,a,b,e,l,_,_,1
_,_,l,a,b,e,l,_,_,2
_,_,l,a,b,e,l,_,_,2
_,_,l,a,b,e,l,_,_,1
_,_,l,a,b,e,l,_,_,2
_,_,l,a,b,e,l,_,_,2
_,_,l,a,b,e,l,_,_,2
_,_,l,a,b,e,l,_,_,2
_,_,l,a,b,e,l,_,_,2
_,_,l,a,b,e,l,_,_,2
_,_,l,a,b,e,l,_,_,1
_,_,l,a,b,e,l,_,_,2
_,_,l,a,b,e,l,_,_,2
_,_,l,a,b,e,l,_,_,2
_,_,l,a,b,e,l,_,_,2
_,_,l,a,b,e,l,_,_,2
_,_,l,a,b,e,l,_,_,2
_,_,l,a,b,e,l,_,_,2
_,_,l,a,b,e,l,_,_,1
_,_,l,a,b,e,l,_,_,1
_,_,l,a,b,e,l,_,_,1
_,_,l,a,b,e,l,_,_,2
_,_,l,a,b,e,l,_,_,2
_,_,l,a,b,e,l,_,_,2
_,_,l,a,b,e,l,_,_,1
_,_,l,a,b,e,l,_,_,2
_,_,l,a,b,e,l,_,_,1
_,_,l,a,b,e,l,_,_,2
_,_,l,a,b,e,l,_,_,2
_,_,l,a,b,e,l,_,_,2
_,_,l,a,b,e,l,_,_,2
_,_,l,a,b,e,l,_,_,2
_,_,l,a,b,e,l,_,_,2
_,_,l,a,b,e,l,_,_,2
_,_,l,a,b,e,l,_,_,2
_,_,l,a,b,e,l,_,_,2
_,_,l,a,b,e,l,_,_,2
_,_,l,a,b,e,l,_,_,2
_,_,l,a,b,e,l,_,_,2
_,_,l,a,b,e,l,_,_,2
_,_,l,a,b,e,l,_,_,2
_,_,l,a,b,e,l,_,_,2
_,_,l,a,b,e,l,_,_,2
_,_,l,a,b,e,l,_,_,2
_,_,l,a,b,e,l,_,_,2
_,_,l,a,b,e,l,_,_,2
_,_,l,a,b,e,l,_,_,2
_,_,l,a,b,e,l,_,_,2
_,_,l,a,b,e,l,_,_,2
_,_,l,a,b,e,l,_,_,2
_,_,l,a,b,e,l,_,_,1
_,_,l,a,b,e,l,_,_,1
_,_,l,a,b,e,l,_,_,2
_,_,l,a,b,e,l,_,_,2
_,_,l,a,b,e,l,_,_,1
_,_,l,a,b,e,l,_,_,2
_,_,l,a,b,e,l,_,_,2
_,_,l,a,b,e,l,_,_,1
_,_,l,a,b,e,l,_,_,2
_,_,l,a,b,e,l,_,_,2
_,_,l,a,b,e,l,_,_,2
_,_,l,a,b,e,l,_,_,2
_,_,l,a,b,e,l,_,_,1
_,_,l,a,b,e,l,_,_,2
_,_,l,a,b,e,l,_,_,2
_,_,l,a,b,e,l,_,_,1
_,_,l,a,b,e,l,_,_,2
_,_,l,a,b,e,l,_,_,2
_,_,l,a,b,e,l,_,_,2
_,_,l,a,b,e,l,_,_,2
_,_,l,a,b,e,l,_,_,2
_,_,l,a,b,e,l,_,_,2
_,_,l,a,b,e,l,_,_,2
_,_,l,a,b,e,l,_,_,2
_,_,l,a,b,e,l,_,_,1
_,_,l,a,b,e,l,_,_,2
_,_,l,a,b,e,l,_,_,2
_,_,l,a,b,e,l,_,_,2
_,_,l,a,b,e,l,_,_,2
_,_,l,a,b,e,l,_,_,1
_,_,l,a,b,e,l,_,_,1
_,_,l,a,b,e,l,_,_,2
_,_,l,a,b,e,l,_,_,2
_,_,l,a,b,e,l,_,_,1
_,_,l,a,b,e,l,_,_,2
_,_,l,a,b,e,l,_,_,2
_,_,l,a,b,e,l,_,_,2
_,_,l,a,b,e,l,_,_,2
_,_,l,a,b,e,l,_,_,2
_,_,l,a,b,e,l,_,_,2
_,_,l,a,b,e,l,_,_,2
_,_,l,a,b,e,l,_,_,2
_,_,l,a,b,e,l,_,_,2
_,_,l,a,b,e,l,_,_,2
_,_,l,a,b,e,l,_,_,2
_,_,l,a,b,e,l,_,_,2
_,_,l,a,b,e,l,_,_,2
_,_,l,a,b,e,l,_,_,2
_,_,l,a,b,e,l,_,_,1
_,_,l,a,b,e,l,_,_,2
_,_,l,a,b,e,l,_,_,2
_,_,l,a,b,e,l,_,_,2
_,_,l,a,b,e,l,_,_,1
_,_,l,a,b,e,l,_,_,1
_,_,l,a,b,e,l,_,_,2
_,_,l,a,b,e,l,_,_,2
_,_,l,a,b,e,l,_,_,2
_,_,l,a,b,e,l,_,_,2
_,_,l,a,b,e,l,_,_,2
_,_,l,a,b,e,l,_,_,2
_,_,l,a,b,e,l,_,_,1
_,_,l,a,b,e,l,_,_,2
_,_,l,a,b,e,l,_,_,1
_,_,l,a,b,e,l,_,_,2
_,_,l,a,b,e,l,_,_,2
_,_,l,a,b,e,l,_,_,2
_,_,l,a,b,e,l,_,_,2
_,_,l,a,b,e,l,_,_,1
_,_,l,a,b,e,l,_,_,2
_,_,l,a,b,e,l,_,_,2
_,_,l,a,b,e,l,_,_,1
_,_,l,a,b,e,l,_,_,2
_,_,l,a,b,e,l,_,_,2
_,_,l,a,b,e,l,_,_,2
_,_,l,a,b,e,l,_,_,2
_,_,l,a,b,e,l,_,_,2
_,_,l,a,b,e,l,_,_,1
_,_,l,a,b,e,l,_,_,1
_,_,l,a,b,e,l,_,_,2
_,_,l,a,b,e,l,_,_,2
_,_,l,a,b,e,l,_,_,2
_,_,l,a,b,e,l,_,_,2
_,_,l,a,b,e,l,_,_,1
_,_,l,a,b,e,l,_,_,2
_,_,l,a,b,e,l,_,_,2
_,_,l,a,b,e,l,_,_,2
_,_,l,a,b,e,l,_,_,1
_,_,l,a,b,e,l,_,_,2
_,_,l,a,b,e,l,_,_,2
_,_,l,a,b,e,l,_,_,2
_,_,l,a,b,e,l,_,_,2
_,_,l,a,b,e,l,_,_,2
_,_,l,a,b,e,l,_,_,2
_,_,l,a,b,e,l,_,_,2
_,_,l,a,b,e,l,_,_,2
_,_,l,a,b,e,l,_,_,1
_,_,l,a,b,e,l,_,_,2
_,_,l,a,b,e,l,_,_,2
_,_,l,a,b,e,l,_,_,2
_,_,l,a,b,e,l,_,_,2
_,_,l,a,b,e,l,_,_,2
_,_,l,a,b,e,l,_,_,2
_,_,l,a,b,e,l,_,_,2
_,_,l,a,b,e,l,_,_,1
_,_,l,a,b,e,l,_,_,2
_,_,l,a,b,e,l,_,_,2
_,_,l,a,b,e,l,_,_,1
_,_,l,a,b,e,l,_,_,2
_,_,l,a,b,e,l,_,_,1
_,_,l,a,b,e,l,_,_,2
_,_,l,a,b,e,l,_,_,1
_,_,l,a,b,e,l,_,_,2
_,_,l,a,b,e,l,_,_,2
_,_,l,a,b,e,l,_,_,2
_,_,l,a,b,e,l,_,_,2
_,_,l,a,b,e,l,_,_,2
_,_,l,a,b,e,l,_,_,1
_,_,l,a,b,e,l,_,_,2
_,_,l,a,b,e,l,_,_,2
_,_,l,a,b,e,l,_,_,2
_,_,l,a,b,e,l,_,_,2
_,_,l,a,b,e,l,_,_,1
_,_,l,a,b,e,l,_,_,2
_,_,l,a,b,e,l,_,_,2
_,_,l,a,b,e,l,_,_,2
_,_,l,a,b,e,l,_,_,1
_,_,l,a,b,e,l,_,_,1
_,_,l,a,b,e,l,_,_,2
_,_,l,a,b,e,l,_,_,2
_,_,l,a,b,e,l,_,_,2
_,_,l,a,b,e,l,_,_,1
_,_,l,a,b,e,l,_,_,1
_,_,l,a,b,e,l,_,_,2
_,_,l,a,b,e,l,_,_,1
_,_,l,a,b,e,l,_,_,2
_,_,l,a,b,e,l,_,_,1
_,_,l,a,b,e,l,_,_,2
_,_,l,a,b,e,l,_,_,2
_,_,l,a,b,e,l,_,_,1
_,_,l,a,b,e,l,_,_,1
_,_,l,a,b,e,l,_,_,2
_,_,l,a,b,e,l,_,_,2
_,_,l,a,b,e,l,_,_,2
_,_,l,a,b,e,l,_,_,2
_,_,l,a,b,e,l,_,_,2
_,_,l,a,b,e,l,_,_,2
_,_,l,a,b,e,l,_,_,1
_,_,l,a,b,e,l,_,_,2
_,_,l,a,b,e,l,_,_,1
_,_,l,a,b,e,l,_,_,1
_,_,l,a,b,e,l,_,_,2
_,_,l,a,b,e,l,_,_,2
_,_,l,a,b,e,l,_,_,1
_,_,l,a,b,e,l,_,_,1
_,_,l,a,b,e,l,_,_,2
_,_,l,a,b,e,l,_,_,2
_,_,l,a,b,e,l,_,_,1
_,_,l,a,b,e,l,_,_,2
_,_,l,a,b,e,l,_,_,2
_,_,l,a,b,e,l,_,_,1
_,_,l,a,b,e,l,_,_,1
_,_,l,a,b,e,l,_,_,2
_,_,l,a,b,e,l,_,_,2
_,_,l,a,b,e,l,_,_,1
_,_,l,a,b,e,l,_,_,2
_,_,l,a,b,e,l,_,_,1
_,_,l,a,b,e,l,_,_,2
_,_,l,a,b,e,l,_,_,2
_,_,l,a,b,e,l,_,_,2
_,_,l,a,b,e,l,_,_,2
_,_,l,a,b,e,l,_,_,1
_,_,l,a,b,e,l,_,_,1
_,_,l,a,b,e,l,_,_,1
_,_,l,a,b,e,l,_,_,2
_,_,l,a,b,e,l,_,_,1
_,_,l,a,b,e,l,_,_,1
_,_,l,a,b,e,l,_,_,2
_,_,l,a,b,e,l,_,_,2
_,_,l,a,b,e,l,_,_,1
_,_,l,a,b,e,l,_,_,1
_,_,l,a,b,e,l,_,_,2
_,_,l,a,b,e,l,_,_,2
_,_,l,a,b,e,l,_,_,2
_,_,l,a,b,e,l,_,_,2
_,_,l,a,b,e,l,_,_,2
_,_,l,a,b,e,l,_,_,1
_,_,l,a,b,e,l,_,_,2
_,_,l,a,b,e,l,_,_,2
_,_,l,a,b,e,l,_,_,2
_,_,l,a,b,e,l,_,_,2
_,_,l,a,b,e,l,_,_,1
_,_,l,a,b,e,l,_,_,2
_,_,l,a,b,e,l,_,_,2
_,_,l,a,b,e,l,_,_,1
_,_,l,a,b,e,l,_,_,2
_,_,l,a,b,e,l,_,_,1
_,_,l,a,b,e,l,_,_,2
_,_,l,a,b,e,l,_,_,2
_,_,l,a,b,e,l,_,_,2
_,_,l,a,b,e,l,_,_,2
_,_,l,a,b,e,l,_,_,2
_,_,l,a,b,e,l,_,_,2
_,_,l,a,b,e,l,_,_,1
_,_,l,a,b,e,l,_,_,2
_,_,l,a,b,e,l,_,_,2
_,_,l,a,b,e,l,_,_,2
_,_,l,a,b,e,l,_,_,2
_,_,l,a,b,e,l,_,_,2
_,_,l,a,b,e,l,_,_,2
_,_,l,a,b,e,l,_,_,2
_,_,l,a,b,e,l,_,_,2
_,_,l,a,b,e,l,_,_,1
_,_,l,a,b,e,l,_,_,1
_,_,l,a,b,e,l,_,_,2
_,_,l,a,b,e,l,_,_,2
_,_,l,a,b,e,l,_,_,2
_,_,l,a,b,e,l,_,_,2
_,_,l,a,b,e,l,_,_,2
_,_,l,a,b,e,l,_,_,2
_,_,l,a,b,e,l,_,_,1
_,_,l,a,b,e,l,_,_,1
_,_,l,a,b,e,l,_,_,2
_,_,l,a,b,e,l,_,_,1
_,_,l,a,b,e,l,_,_,1
_,_,l,a,b,e,l,_,_,2
_,_,l,a,b,e,l,_,_,1
_,_,l,a,b,e,l,_,_,1
_,_,l,a,b,e,l,_,_,1
_,_,l,a,b,e,l,_,_,1
_,_,l,a,b,e,l,_,_,1
_,_,l,a,b,e,l,_,_,2
_,_,l,a,b,e,l,_,_,2
_,_,l,a,b,e,l,_,_,2
_,_,l,a,b,e,l,_,_,1
_,_,l,a,b,e,l,_,_,1
_,_,l,a,b,e,l,_,_,2
_,_,l,a,b,e,l,_,_,1
_,_,l,a,b,e,l,_,_,2
_,_,l,a,b,e,l,_,_,2
_,_,l,a,b,e,l,_,_,1
_,_,l,a,b,e,l,_,_,2
_,_,l,a,b,e,l,_,_,2
_,_,l,a,b,e,l,_,_,1
_,_,l,a,b,e,l,_,_,2
_,_,l,a,b,e,l,_,_,1
_,_,l,a,b,e,l,_,_,1
_,_,l,a,b,e,l,_,_,2
_,_,l,a,b,e,l,_,_,1
_,_,l,a,b,e,l,_,_,1
_,_,l,a,b,e,l,_,_,1
_,_,l,a,b,e,l,_,_,1
_,_,l,a,b,e,l,_,_,1
_,_,l,a,b,e,l,_,_,2
_,_,l,a,b,e,l,_,_,2
_,_,l,a,b,e,l,_,_,2
_,_,l,a,b,e,l,_,_,2
_,_,l,a,b,e,l,_,_,2
_,_,l,a,b,e,l,_,_,2
_,_,l,a,b,e,l,_,_,2
_,_,l,a,b,e,l,_,_,2
_,_,l,a,b,e,l,_,_,2
_,_,l,a,b,e,l,_,_,1
_,_,l,a,b,e,l,_,_,2
_,_,l,a,b,e,l,_,_,2
_,_,l,a,b,e,l,_,_,2
_,_,l,a,b,e,l,_,_,2
_,_,l,a,b,e,l,_,_,2
_,_,l,a,b,e,l,_,_,1
_,_,l,a,b,e,l,_,_,1
_,_,l,a,b,e,l,_,_,2
_,_,l,a,b,e,l,_,_,1
_,_,l,a,b,e,l,_,_,1
_,_,l,a,b,e,l,_,_,1
_,_,l,a,b,e,l,_,_,2
_,_,l,a,b,e,l,_,_,2
_,_,l,a,b,e,l,_,_,2
_,_,l,a,b,e,l,_,_,2
_,_,l,a,b,e,l,_,_,2
_,_,l,a,b,e,l,_,_,2
_,_,l,a,b,e,l,_,_,1
_,_,l,a,b,e,l,_,_,1
_,_,l,a,b,e,l,_,_,2
_,_,l,a,b,e,l,_,_,2
_,_,l,a,b,e,l,_,_,2
_,_,l,a,b,e,l,_,_,2
_,_,l,a,b,e,l,_,_,2
_,_,l,a,b,e,l,_,_,1
_,_,l,a,b,e,l,_,_,2
_,_,l,a,b,e,l,_,_,2
_,_,l,a,b,e,l,_,_,2
_,_,l,a,b,e,l,_,_,2
_,_,l,a,b,e,l,_,_,2
_,_,l,a,b,e,l,_,_,2
_,_,l,a,b,e,l,_,_,2
_,_,l,a,b,e,l,_,_,2
_,_,l,a,b,e,l,_,_,2
_,_,l,a,b,e,l,_,_,2
_,_,l,a,b,e,l,_,_,1
_,_,l,a,b,e,l,_,_,1
_,_,l,a,b,e,l,_,_,2
_,_,l,a,b,e,l,_,_,1
_,_,l,a,b,e,l,_,_,2
_,_,l,a,b,e,l,_,_,2
_,_,l,a,b,e,l,_,_,2
_,_,l,a,b,e,l,_,_,2
_,_,l,a,b,e,l,_,_,2
_,_,l,a,b,e,l,_,_,2
_,_,l,a,b,e,l,_,_,2
_,_,l,a,b,e,l,_,_,2
_,_,l,a,b,e,l,_,_,2
_,_,l,a,b,e,l,_,_,2
_,_,l,a,b,e,l,_,_,2
_,_,l,a,b,e,l,_,_,2
_,_,l,a,b,e,l,_,_,1
_,_,l,a,b,e,l,_,_,1
_,_,l,a,b,e,l,_,_,2
_,_,l,a,b,e,l,_,_,2
_,_,l,a,b,e,l,_,_,2
_,_,l,a,b,e,l,_,_,2
_,_,l,a,b,e,l,_,_,2
_,_,l,a,b,e,l,_,_,2
_,_,l,a,b,e,l,_,_,2
_,_,l,a,b,e,l,_,_,2
_,_,l,a,b,e,l,_,_,2
_,_,l,a,b,e,l,_,_,2
_,_,l,a,b,e,l,_,_,1
_,_,l,a,b,e,l,_,_,2
_,_,l,a,b,e,l,_,_,2
_,_,l,a,b,e,l,_,_,1
_,_,l,a,b,e,l,_,_,2
_,_,l,a,b,e,l,_,_,2
_,_,l,a,b,e,l,_,_,2
_,_,l,a,b,e,l,_,_,2
_,_,l,a,b,e,l,_,_,1
_,_,l,a,b,e,l,_,_,2
_,_,l,a,b,e,l,_,_,2
_,_,l,a,b,e,l,_,_,2
_,_,l,a,b,e,l,_,_,1
_,_,l,a,b,e,l,_,_,2
_,_,l,a,b,e,l,_,_,2
_,_,l,a,b,e,l,_,_,1
_,_,l,a,b,e,l,_,_,1
_,_,l,a,b,e,l,_,_,2
_,_,l,a,b,e,l,_,_,2
_,_,l,a,b,e,l,_,_,2
_,_,l,a,b,e,l,_,_,2
_,_,l,a,b,e,l,_,_,2
_,_,l,a,b,e,l,_,_,2
_,_,l,a,b,e,l,_,_,2
_,_,l,a,b,e,l,_,_,2
_,_,l,a,b,e,l,_,_,2
_,_,l,a,b,e,l,_,_,2
_,_,l,a,b,e,l,_,_,2
_,_,l,a,b,e,l,_,_,2
_,_,l,a,b,e,l,_,_,1
_,_,l,a,b,e,l,_,_,2
_,_,l,a,b,e,l,_,_,2
_,_,l,a,b,e,l,_,_,1
_,_,l,a,b,e,l,_,_,2
_,_,l,a,b,e,l,_,_,2
_,_,l,a,b,e,l,_,_,2
_,_,l,a,b,e,l,_,_,2
_,_,l,a,b,e,l,_,_,2
_,_,l,a,b,e,l,_,_,2
_,_,l,a,b,e,l,_,_,2
_,_,l,a,b,e,l,_,_,1
_,_,l,a,b,e,l,_,_,2
_,_,l,a,b,e,l,_,_,1
_,_,l,a,b,e,l,_,_,2
_,_,l,a,b,e,l,_,_,2
_,_,l,a,b,e,l,_,_,2
_,_,l,a,b,e,l,_,_,2
_,_,l,a,b,e,l,_,_,2
_,_,l,a,b,e,l,_,_,2
_,_,l,a,b,e,l,_,_,2
_,_,l,a,b,e,l,_,_,2
_,_,l,a,b,e,l,_,_,2
_,_,l,a,b,e,l,_,_,2
_,_,l,a,b,e,l,_,_,1
_,_,l,a,b,e,l,_,_,2
_,_,l,a,b,e,l,_,_,2
_,_,l,a,b,e,l,_,_,2
_,_,l,a,b,e,l,_,_,2
_,_,l,a,b,e,l,_,_,2
_,_,l,a,b,e,l,_,_,2
_,_,l,a,b,e,l,_,_,2
_,_,l,a,b,e,l,_,_,2
_,_,l,a,b,e,l,_,_,1
_,_,l,a,b,e,l,_,_,2
_,_,l,a,b,e,l,_,_,2
_,_,l,a,b,e,l,_,_,2
_,_,l,a,b,e,l,_,_,2
_,_,l,a,b,e,l,_,_,2
_,_,l,a,b,e,l,_,_,2
_,_,l,a,b,e,l,_,_,2
_,_,l,a,b,e,l,_,_,2
_,_,l,a,b,e,l,_,_,1
_,_,l,a,b,e,l,_,_,2
_,_,l,a,b,e,l,_,_,1
_,_,l,a,b,e,l,_,_,2
_,_,l,a,b,e,l,_,_,2
_,_,l,a,b,e,l,_,_,2
_,_,l,a,b,e,l,_,_,2
_,_,l,a,b,e,l,_,_,2
_,_,l,a,b,e,l,_,_,2
_,_,l,a,b,e,l,_,_,2
_,_,l,a,b,e,l,_,_,2
_,_,l,a,b,e,l,_,_,2
_,_,l,a,b,e,l,_,_,2
_,_,l,a,b,e,l,_,_,2
_,_,l,a,b,e,l,_,_,2
_,_,l,a,b,e,l,_,_,2
_,_,l,a,b,e,l,_,_,1
_,_,l,a,b,e,l,_,_,2
_,_,l,a,b,e,l,_,_,2
_,_,l,a,b,e,l,_,_,2
_,_,l,a,b,e,l,_,_,2
_,_,l,a,b,e,l,_,_,2
_,_,l,a,b,e,l,_,_,2
_,_,l,a,b,e,l,_,_,2
_,_,l,a,b,e,l,_,_,2
_,_,l,a,b,e,l,_,_,1
_,_,l,a,b,e,l,_,_,2
_,_,l,a,b,e,l,_,_,2
_,_,l,a,b,e,l,_,_,2
_,_,l,a,b,e,l,_,_,2
_,_,l,a,b,e,l,_,_,2
_,_,l,a,b,e,l,_,_,2
_,_,l,a,b,e,l,_,_,2
_,_,l,a,b,e,l,_,_,2
_,_,l,a,b,e,l,_,_,2
_,_,l,a,b,e,l,_,_,2
_,_,l,a,b,e,l,_,_,1
_,_,l,a,b,e,l,_,_,2
_,_,l,a,b,e,l,_,_,2
_,_,l,a,b,e,l,_,_,2
_,_,l,a,b,e,l,_,_,2
_,_,l,a,b,e,l,_,_,1
_,_,l,a,b,e,l,_,_,2
_,_,l,a,b,e,l,_,_,1
_,_,l,a,b,e,l,_,_,2
_,_,l,a,b,e,l,_,_,2
_,_,l,a,b,e,l,_,_,1
_,_,l,a,b,e,l,_,_,1
_,_,l,a,b,e,l,_,_,1
_,_,l,a,b,e,l,_,_,2
_,_,l,a,b,e,l,_,_,2
_,_,l,a,b,e,l,_,_,2
_,_,l,a,b,e,l,_,_,2
_,_,l,a,b,e,l,_,_,2
_,_,l,a,b,e,l,_,_,2
_,_,l,a,b,e,l,_,_,2
_,_,l,a,b,e,l,_,_,2
_,_,l,a,b,e,l,_,_,2
_,_,l,a,b,e,l,_,_,2
_,_,l,a,b,e,l,_,_,2
_,_,l,a,b,e,l,_,_,2
_,_,l,a,b,e,l,_,_,1
_,_,l,a,b,e,l,_,_,2
_,_,l,a,b,e,l,_,_,2
_,_,l,a,b,e,l,_,_,2
_,_,l,a,b,e,l,_,_,2
_,_,l,a,b,e,l,_,_,2
_,_,l,a,b,e,l,_,_,1
_,_,l,a,b,e,l,_,_,2
_,_,l,a,b,e,l,_,_,2
_,_,l,a,b,e,l,_,_,2
_,_,l,a,b,e,l,_,_,2
_,_,l,a,b,e,l,_,_,2
_,_,l,a,b,e,l,_,_,2
_,_,l,a,b,e,l,_,_,2
_,_,l,a,b,e,l,_,_,2
_,_,l,a,b,e,l,_,_,2
_,_,l,a,b,e,l,_,_,2
_,_,l,a,b,e,l,_,_,1
_,_,l,a,b,e,l,_,_,2
_,_,l,a,b,e,l,_,_,1
_,_,l,a,b,e,l,_,_,2
_,_,l,a,b,e,l,_,_,2
_,_,l,a,b,e,l,_,_,2
_,_,l,a,b,e,l,_,_,2
_,_,l,a,b,e,l,_,_,2
_,_,l,a,b,e,l,_,_,2
_,_,l,a,b,e,l,_,_,2
_,_,l,a,b,e,l,_,_,2
_,_,l,a,b,e,l,_,_,2
_,_,l,a,b,e,l,_,_,2
_,_,l,a,b,e,l,_,_,2
_,_,l,a,b,e,l,_,_,1
_,_,l,a,b,e,l,_,_,2
_,_,l,a,b,e,l,_,_,1
_,_,l,a,b,e,l,_,_,2
_,_,l,a,b,e,l,_,_,2
_,_,l,a,b,e,l,_,_,2
_,_,l,a,b,e,l,_,_,2
_,_,l,a,b,e,l,_,_,1
_,_,l,a,b,e,l,_,_,2
_,_,l,a,b,e,l,_,_,2
_,_,l,a,b,e,l,_,_,2
_,_,l,a,b,e,l,_,_,1
_,_,l,a,b,e,l,_,_,2
_,_,l,a,b,e,l,_,_,2
_,_,l,a,b,e,l,_,_,1
_,_,l,a,b,e,l,_,_,1
_,_,l,a,b,e,l,_,_,2
_,_,l,a,b,e,l,_,_,2
_,_,l,a,b,e,l,_,_,2
_,_,l,a,b,e,l,_,_,2
_,_,l,a,b,e,l,_,_,1
_,_,l,a,b,e,l,_,_,2
_,_,l,a,b,e,l,_,_,2
_,_,l,a,b,e,l,_,_,2
_,_,l,a,b,e,l,_,_,2
_,_,l,a,b,e,l,_,_,2
_,_,l,a,b,e,l,_,_,2
_,_,l,a,b,e,l,_,_,2
_,_,l,a,b,e,l,_,_,2
_,_,l,a,b,e,l,_,_,2
_,_,l,a,b,e,l,_,_,1
_,_,l,a,b,e,l,_,_,1
_,_,l,a,b,e,l,_,_,2
_,_,l,a,b,e,l,_,_,2
_,_,l,a,b,e,l,_,_,2
_,_,l,a,b,e,l,_,_,2
_,_,l,a,b,e,l,_,_,2
_,_,l,a,b,e,l,_,_,2
_,_,l,a,b,e,l,_,_,2
_,_,l,a,b,e,l,_,_,2
_,_,l,a,b,e,l,_,_,2
_,_,l,a,b,e,l,_,_,2
_,_,l,a,b,e,l,_,_,1
_,_,l,a,b,e,l,_,_,2
_,_,l,a,b,e,l,_,_,2
_,_,l,a,b,e,l,_,_,2
_,_,l,a,b,e,l,_,_,2
_,_,l,a,b,e,l,_,_,2
_,_,l,a,b,e,l,_,_,2
_,_,l,a,b,e,l,_,_,2
_,_,l,a,b,e,l,_,_,2
_,_,l,a,b,e,l,_,_,2
_,_,l,a,b,e,l,_,_,2
_,_,l,a,b,e,l,_,_,2
_,_,l,a,b,e,l,_,_,2
_,_,l,a,b,e,l,_,_,1
_,_,l,a,b,e,l,_,_,2
_,_,l,a,b,e,l,_,_,2
_,_,l,a,b,e,l,_,_,2
_,_,l,a,b,e,l,_,_,2
_,_,l,a,b,e,l,_,_,2
_,_,l,a,b,e,l,_,_,2
_,_,l,a,b,e,l,_,_,2
_,_,l,a,b,e,l,_,_,2
_,_,l,a,b,e,l,_,_,1
_,_,l,a,b,e,l,_,_,2
_,_,l,a,b,e,l,_,_,1
_,_,l,a,b,e,l,_,_,2
_,_,l,a,b,e,l,_,_,1
_,_,l,a,b,e,l,_,_,2
_,_,l,a,b,e,l,_,_,2
_,_,l,a,b,e,l,_,_,1
_,_,l,a,b,e,l,_,_,2
_,_,l,a,b,e,l,_,_,2
_,_,l,a,b,e,l,_,_,2
_,_,l,a,b,e,l,_,_,2
_,_,l,a,b,e,l,_,_,2
_,_,l,a,b,e,l,_,_,2
_,_,l,a,b,e,l,_,_,2
_,_,l,a,b,e,l,_,_,2
_,_,l,a,b,e,l,_,_,2
_,_,l,a,b,e,l,_,_,2
_,_,l,a,b,e,l,_,_,2
_,_,l,a,b,e,l,_,_,2
_,_,l,a,b,e,l,_,_,2
_,_,l,a,b,e,l,_,_,2
_,_,l,a,b,e,l,_,_,2
_,_,l,a,b,e,l,_,_,2
_,_,l,a,b,e,l,_,_,2
_,_,l,a,b,e,l,_,_,1
_,_,l,a,b,e,l,_,_,2
_,_,l,a,b,e,l,_,_,2
_,_,l,a,b,e,l,_,_,2
_,_,l,a,b,e,l,_,_,2
_,_,l,a,b,e,l,_,_,1
_,_,l,a,b,e,l,_,_,2
_,_,l,a,b,e,l,_,_,2
_,_,l,a,b,e,l,_,_,2
_,_,l,a,b,e,l,_,_,1
_,_,l,a,b,e,l,_,_,1
_,_,l,a,b,e,l,_,_,2
_,_,l,a,b,e,l,_,_,2
_,_,l,a,b,e,l,_,_,2
_,_,l,a,b,e,l,_,_,2
_,_,l,a,b,e,l,_,_,1
_,_,l,a,b,e,l,_,_,1
_,_,l,a,b,e,l,_,_,2
_,_,l,a,b,e,l,_,_,2
_,_,l,a,b,e,l,_,_,2
_,_,l,a,b,e,l,_,_,2
_,_,l,a,b,e,l,_,_,1
_,_,l,a,b,e,l,_,_,2
_,_,l,a,b,e,l,_,_,2
_,_,l,a,b,e,l,_,_,2
_,_,l,a,b,e,l,_,_,2
_,_,l,a,b,e,l,_,_,2
_,_,l,a,b,e,l,_,_,1
_,_,l,a,b,e,l,_,_,2
_,_,l,a,b,e,l,_,_,2
_,_,l,a,b,e,l,_,_,2
_,_,l,a,b,e,l,_,_,2
_,_,l,a,b,e,l,_,_,2
_,_,l,a,b,e,l,_,_,2
_,_,l,a,b,e,l,_,_,2
_,_,l,a,b,e,l,_,_,2
_,_,l,a,b,e,l,_,_,2
_,_,l,a,b,e,l,_,_,2
_,_,l,a,b,e,l,_,_,2
_,_,l,a,b,e,l,_,_,2
_,_,l,a,b,e,l,_,_,2
_,_,l,a,b,e,l,_,_,2
_,_,l,a,b,e,l,_,_,2
_,_,l,a,b,e,l,_,_,2
_,_,l,a,b,e,l,_,_,2
_,_,l,a,b,e,l,_,_,2
_,_,l,a,b,e,l,_,_,2
_,_,l,a,b,e,l,_,_,2
_,_,l,a,b,e,l,_,_,2
_,_,l,a,b,e,l,_,_,1
_,_,l,a,b,e,l,_,_,2
_,_,l,a,b,e,l,_,_,1
_,_,l,a,b,e,l,_,_,2
_,_,l,a,b,e,l,_,_,1
_,_,l,a,b,e,l,_,_,2
_,_,l,a,b,e,l,_,_,2
_,_,l,a,b,e,l,_,_,2
_,_,l,a,b,e,l,_,_,2
_,_,l,a,b,e,l,_,_,2
_,_,l,a,b,e,l,_,_,1
_,_,l,a,b,e,l,_,_,1
_,_,l,a,b,e,l,_,_,2
_,_,l,a,b,e,l,_,_,1
_,_,l,a,b,e,l,_,_,2
_,_,l,a,b,e,l,_,_,2
_,_,l,a,b,e,l,_,_,2
_,_,l,a,b,e,l,_,_,2
_,_,l,a,b,e,l,_,_,2
_,_,l,a,b,e,l,_,_,2
_,_,l,a,b,e,l,_,_,2
_,_,l,a,b,e,l,_,_,2
_,_,l,a,b,e,l,_,_,1
_,_,l,a,b,e,l,_,_,2
_,_,l,a,b,e,l,_,_,2
_,_,l,a,b,e,l,_,_,2
_,_,l,a,b,e,l,_,_,2
_,_,l,a,b,e,l,_,_,2
_,_,l,a,b,e,l,_,_,2
_,_,l,a,b,e,l,_,_,2
_,_,l,a,b,e,l,_,_,2
_,_,l,a,b,e,l,_,_,1
_,_,l,a,b,e,l,_,_,2
_,_,l,a,b,e,l,_,_,1
_,_,l,a,b,e,l,_,_,2
_,_,l,a,b,e,l,_,_,2
_,_,l,a,b,e,l,_,_,2
_,_,l,a,b,e,l,_,_,2
_,_,l,a,b,e,l,_,_,1
_,_,l,a,b,e,l,_,_,2
_,_,l,a,b,e,l,_,_,2
_,_,l,a,b,e,l,_,_,2
_,_,l,a,b,e,l,_,_,2
_,_,l,a,b,e,l,_,_,2
_,_,l,a,b,e,l,_,_,2
_,_,l,a,b,e,l,_,_,2
_,_,l,a,b,e,l,_,_,2
_,_,l,a,b,e,l,_,_,2
_,_,l,a,b,e,l,_,_,1
_,_,l,a,b,e,l,_,_,2
_,_,l,a,b,e,l,_,_,2
_,_,l,a,b,e,l,_,_,1
_,_,l,a,b,e,l,_,_,1
_,_,l,a,b,e,l,_,_,2
_,_,l,a,b,e,l,_,_,2
_,_,l,a,b,e,l,_,_,2
_,_,l,a,b,e,l,_,_,2
_,_,l,a,b,e,l,_,_,2
_,_,l,a,b,e,l,_,_,2
_,_,l,a,b,e,l,_,_,2
_,_,l,a,b,e,l,_,_,2
_,_,l,a,b,e,l,_,_,1
_,_,l,a,b,e,l,_,_,2
_,_,l,a,b,e,l,_,_,2
_,_,l,a,b,e,l,_,_,2
_,_,l,a,b,e,l,_,_,2
_,_,l,a,b,e,l,_,_,2
_,_,l,a,b,e,l,_,_,2
_,_,l,a,b,e,l,_,_,2
_,_,l,a,b,e,l,_,_,2
_,_,l,a,b,e,l,_,_,2
_,_,l,a,b,e,l,_,_,1
_,_,l,a,b,e,l,_,_,2
_,_,l,a,b,e,l,_,_,2
_,_,l,a,b,e,l,_,_,2
_,_,l,a,b,e,l,_,_,2
_,_,l,a,b,e,l,_,_,2
_,_,l,a,b,e,l,_,_,1
_,_,l,a,b,e,l,_,_,2
_,_,l,a,b,e,l,_,_,2
_,_,l,a,b,e,l,_,_,1
_,_,l,a,b,e,l,_,_,2
_,_,l,a,b,e,l,_,_,1
_,_,l,a,b,e,l,_,_,2
_,_,l,a,b,e,l,_,_,2
_,_,l,a,b,e,l,_,_,2
_,_,l,a,b,e,l,_,_,2
_,_,l,a,b,e,l,_,_,2
_,_,l,a,b,e,l,_,_,2
_,_,l,a,b,e,l,_,_,1
_,_,l,a,b,e,l,_,_,2
_,_,l,a,b,e,l,_,_,2
_,_,l,a,b,e,l,_,_,2
_,_,l,a,b,e,l,_,_,1
_,_,l,a,b,e,l,_,_,2
_,_,l,a,b,e,l,_,_,1
_,_,l,a,b,e,l,_,_,2
_,_,l,a,b,e,l,_,_,2
_,_,l,a,b,e,l,_,_,2
_,_,l,a,b,e,l,_,_,1
_,_,l,a,b,e,l,_,_,2
_,_,l,a,b,e,l,_,_,2
_,_,l,a,b,e,l,_,_,2
_,_,l,a,b,e,l,_,_,2
_,_,l,a,b,e,l,_,_,2
_,_,l,a,b,e,l,_,_,2
_,_,l,a,b,e,l,_,_,2
_,_,l,a,b,e,l,_,_,2
_,_,l,a,b,e,l,_,_,1
_,_,l,a,b,e,l,_,_,2
_,_,l,a,b,e,l,_,_,1
_,_,l,a,b,e,l,_,_,2
_,_,l,a,b,e,l,_,_,2
_,_,l,a,b,e,l,_,_,2
_,_,l,a,b,e,l,_,_,2
_,_,l,a,b,e,l,_,_,2
_,_,l,a,b,e,l,_,_,2
_,_,l,a,b,e,l,_,_,1
_,_,l,a,b,e,l,_,_,1
_,_,l,a,b,e,l,_,_,2
_,_,l,a,b,e,l,_,_,2
_,_,l,a,b,e,l,_,_,2
_,_,l,a,b,e,l,_,_,2
_,_,l,a,b,e,l,_,_,1
_,_,l,a,b,e,l,_,_,2
_,_,l,a,b,e,l,_,_,2
_,_,l,a,b,e,l,_,_,2
_,_,l,a,b,e,l,_,_,2
_,_,l,a,b,e,l,_,_,2
_,_,l,a,b,e,l,_,_,1
_,_,l,a,b,e,l,_,_,2
_,_,l,a,b,e,l,_,_,2
_,_,l,a,b,e,l,_,_,2
_,_,l,a,b,e,l,_,_,2
_,_,l,a,b,e,l,_,_,2
_,_,l,a,b,e,l,_,_,2
_,_,l,a,b,e,l,_,_,2
_,_,l,a,b,e,l,_,_,2
_,_,l,a,b,e,l,_,_,2
_,_,l,a,b,e,l,_,_,2
_,_,l,a,b,e,l,_,_,1
_,_,l,a,b,e,l,_,_,2
_,_,l,a,b,e,l,_,_,2
_,_,l,a,b,e,l,_,_,2
_,_,l,a,b,e,l,_,_,1
_,_,l,a,b,e,l,_,_,2
_,_,l,a,b,e,l,_,_,2
_,_,l,a,b,e,l,_,_,1
_,_,l,a,b,e,l,_,_,2
_,_,l,a,b,e,l,_,_,2
_,_,l,a,b,e,l,_,_,2
_,_,l,a,b,e,l,_,_,2
_,_,l,a,b,e,l,_,_,2
_,_,l,a,b,e,l,_,_,2
_,_,l,a,b,e,l,_,_,2
_,_,l,a,b,e,l,_,_,2
_,_,l,a,b,e,l,_,_,2
_,_,l,a,b,e,l,_,_,2
_,_,l,a,b,e,l,_,_,2
_,_,l,a,b,e,l,_,_,1
_,_,l,a,b,e,l,_,_,2
_,_,l,a,b,e,l,_,_,2
_,_,l,a,b,e,l,_,_,1
_,_,l,a,b,e,l,_,_,2
_,_,l,a,b,e,l,_,_,1
_,_,l,a,b,e,l,_,_,2
_,_,l,a,b,e,l,_,_,1
_,_,l,a,b,e,l,_,_,2
_,_,l,a,b,e,l,_,_,2
_,_,l,a,b,e,l,_,_,2
_,_,l,a,b,e,l,_,_,2
_,_,l,a,b,e,l,_,_,1
_,_,l,a,b,e,l,_,_,2
_,_,l,a,b,e,l,_,_,2
_,_,l,a,b,e,l,_,_,2
_,_,l,a,b,e,l,_,_,2
_,_,l,a,b,e,l,_,_,2
_,_,l,a,b,e,l,_,_,2
_,_,l,a,b,e,l,_,_,2
_,_,l,a,b,e,l,_,_,1
_,_,l,a,b,e,l,_,_,2
_,_,l,a,b,e,l,_,_,2
_,_,l,a,b,e,l,_,_,2
_,_,l,a,b,e,l,_,_,2
_,_,l,a,b,e,l,_,_,1
_,_,l,a,b,e,l,_,_,2
_,_,l,a,b,e,l,_,_,2
_,_,l,a,b,e,l,_,_,2
_,_,l,a,b,e,l,_,_,2
_,_,l,a,b,e,l,_,_,2
_,_,l,a,b,e,l,_,_,2
_,_,l,a,b,e,l,_,_,1
_,_,l,a,b,e,l,_,_,2
_,_,l,a,b,e,l,_,_,2
_,_,l,a,b,e,l,_,_,2
_,_,l,a,b,e,l,_,_,1
_,_,l,a,b,e,l,_,_,2
_,_,l,a,b,e,l,_,_,2
_,_,l,a,b,e,l,_,_,2
_,_,l,a,b,e,l,_,_,2
_,_,l,a,b,e,l,_,_,2
_,_,l,a,b,e,l,_,_,2
_,_,l,a,b,e,l,_,_,2
_,_,l,a,b,e,l,_,_,2
_,_,l,a,b,e,l,_,_,2
_,_,l,a,b,e,l,_,_,1
_,_,l,a,b,e,l,_,_,2
_,_,l,a,b,e,l,_,_,2
_,_,l,a,b,e,l,_,_,2
_,_,l,a,b,e,l,_,_,1
_,_,l,a,b,e,l,_,_,2
_,_,l,a,b,e,l,_,_,2
_,_,l,a,b,e,l,_,_,2
_,_,l,a,b,e,l,_,_,2
_,_,l,a,b,e,l,_,_,2
_,_,l,a,b,e,l,_,_,2
_,_,l,a,b,e,l,_,_,2
_,_,l,a,b,e,l,_,_,2
_,_,l,a,b,e,l,_,_,2
_,_,l,a,b,e,l,_,_,2
_,_,l,a,b,e,l,_,_,2
_,_,l,a,b,e,l,_,_,2
_,_,l,a,b,e,l,_,_,2
_,_,l,a,b,e,l,_,_,2
_,_,l,a,b,e,l,_,_,2
_,_,l,a,b,e,l,_,_,2
_,_,l,a,b,e,l,_,_,1
_,_,l,a,b,e,l,_,_,2
_,_,l,a,b,e,l,_,_,2
_,_,l,a,b,e,l,_,_,2
_,_,l,a,b,e,l,_,_,2
_,_,l,a,b,e,l,_,_,2
_,_,l,a,b,e,l,_,_,2
_,_,l,a,b,e,l,_,_,1
_,_,l,a,b,e,l,_,_,2
_,_,l,a,b,e,l,_,_,2
_,_,l,a,b,e,l,_,_,2
_,_,l,a,b,e,l,_,_,2
_,_,l,a,b,e,l,_,_,2
_,_,l,a,b,e,l,_,_,2
_,_,l,a,b,e,l,_,_,2
_,_,l,a,b,e,l,_,_,2
_,_,l,a,b,e,l,_,_,2
_,_,l,a,b,e,l,_,_,2
_,_,l,a,b,e,l,_,_,2
_,_,l,a,b,e,l,_,_,2
_,_,l,a,b,e,l,_,_,2
_,_,l,a,b,e,l,_,_,2
_,_,l,a,b,e,l,_,_,2
_,_,l,a,b,e,l,_,_,2
_,_,l,a,b,e,l,_,_,2
_,_,l,a,b,e,l,_,_,2
_,_,l,a,b,e,l,_,_,2
_,_,l,a,b,e,l,_,_,2
_,_,l,a,b,e,l,_,_,2
_,_,l,a,b,e,l,_,_,2
_,_,l,a,b,e,l,_,_,1
_,_,l,a,b,e,l,_,_,2
_,_,l,a,b,e,l,_,_,2
_,_,l,a,b,e,l,_,_,1
_,_,l,a,b,e,l,_,_,2
_,_,l,a,b,e,l,_,_,2
_,_,l,a,b,e,l,_,_,2
_,_,l,a,b,e,l,_,_,2
_,_,l,a,b,e,l,_,_,2
_,_,l,a,b,e,l,_,_,2
_,_,l,a,b,e,l,_,_,2
_,_,l,a,b,e,l,_,_,1
