﻿can not, unable
cannot, unable
could not, unable
do not even have, unexist
had no, lack
inexpensive,cheap
less expensive,cheap
no complains,happy
no confusing,clear
no contract,independent
no good,bad
no have,unexist
no internet,without internet
no issues,good
no lagging,fast
no longer works,stop working
no more,few
no problem, good
no sound,silent
no support,unsupported 
no troubles, good
non removable,fit
not a bad, good
not a crap,good
not a fan of,hate
not a good,bad
not a great,bad
not a hug fan, dislike
not a joke,serious
not a low,high
not able,unable
not add, decrease
not all,some
not appear,disappear
not as good as,as bad as
not bad,good
not be able,unable
not be dissapointed,happy
not be fix,broken
not be more, less
not be replaced,permanent
not being able, unable
not blaming,accept
not boring,interesting
not bring, exclude
not buy,refuse to buy
not captured, lose
not charge,empty
not clear,complicated
not compatible, bad
not complain,agree
not connect,disconnected
not easily,hard
not even have,lost
not even return,request
not every, some
not find, miss
not fit,unfit
not get,lost
not good,bad
not great,bad
not half bad,good
not happy,sad
not have,lost
not hear,ignore
not honor,disregard
not in good,bad
not kind,
not know,forget
not last,away
not let,prohibit
not like,dislike
not locked, unlocked
not look, disregard 
not loud,low
not make,uncapable
not match,unmatch
not meet,unfit
not much,few
not offer,unexist
not one problem,good
not open,close
not operating,refuse operating
not paid off,debt
not perfect,good enough
not possible,impossible
not power,off
not powering,off
not purchased,reject
not put it down,use
not put,unexist
not reach,unable to reach
not realize,misunderstand
not really, disagree
not receive,refuse
not recommend,bad
not respond,stop working
not responding,stop working
not retain, unmaintained
not return,request
not satisfied,unhappy
not sealed,open
not smart,fool
not smooth,rough
not stay,empty
not support, unable to support
not sure,unsure
not that much,few
not the best,bad
not too high,low
not too well,bad
not turn off, turn on
not turn on,turn off
not understand, misunderstand
not unlocked,locked
not use,free
not usefull,useless
not using, free
not very good,bad
not very powerful,bad
not wait, must
not wake up,off
not want,ignore
not waste,use
not waterproof,wet
not with,without
not work,stop working
not working,stop working
not worth, bad
